{
    "key": "group_5e15f31153541",
    "title": "[BLOCK] Insert Maps",
    "fields": [
        {
            "key": "field_5e15f31157ef2",
            "label": "Insert Maps",
            "name": "",
            "type": "accordion",
            "instructions": "",
            "required": 0,
            "conditional_logic": 0,
            "wrapper": {
                "width": "",
                "class": "",
                "id": ""
            },
            "open": 0,
            "multi_expand": 0,
            "endpoint": 0
        },
        {
            "key": "field_5e15f48a90534",
            "label": "Please Note",
            "name": "",
            "type": "message",
            "instructions": "",
            "required": 0,
            "conditional_logic": 0,
            "wrapper": {
                "width": "",
                "class": "",
                "id": ""
            },
            "message": "This block adds maps to the page. To set map co-ordinates, please go to <strong>Site Settings -> Contact Details<\/strong>.",
            "new_lines": "",
            "esc_html": 0
        },
        {
            "key": "field_5e15f311586ca",
            "label": "Insert Maps - END",
            "name": "",
            "type": "accordion",
            "instructions": "",
            "required": 0,
            "conditional_logic": 0,
            "wrapper": {
                "width": "",
                "class": "",
                "id": ""
            },
            "open": 0,
            "multi_expand": 0,
            "endpoint": 1
        }
    ],
    "location": [
        [
            {
                "param": "block",
                "operator": "==",
                "value": "acf\/insert-maps"
            }
        ]
    ],
    "menu_order": 0,
    "position": "normal",
    "style": "default",
    "label_placement": "top",
    "instruction_placement": "label",
    "hide_on_screen": "",
    "active": 1,
    "description": "",
    "modified": 1578497219
}